                                <svg version='1.0' viewBox='0 0 256.000000 256.000000' className='fav-img'>
                                    <g transform='translate(0.000000,256.000000) scale(0.100000,-0.100000)' fill='red' stroke='none'>
                                        <path
                                            d='M1132 1957 l-172 -303 -333 -68 c-182 -38 -336 -72 -341 -77 -5 -4
38 -56 95 -116 57 -60 163 -174 235 -253 l131 -145 -38 -344 c-22 -189 -38
-346 -36 -347 2 -2 142 60 313 138 170 77 314 141 320 141 6 0 148 -62 315
-138 167 -75 309 -139 315 -142 7 -2 -3 117 -27 329 -21 183 -38 340 -39 349
0 15 270 320 413 466 42 43 56 64 46 67 -8 3 -160 35 -339 71 -179 37 -328 69
-331 71 -4 2 -80 133 -169 291 -90 159 -168 294 -174 300 -9 10 -54 -63 -184
-290z'
                                        />
                                    </g>
                                </svg>